<svg xmlns="http://www.w3.org/2000/svg" width="25.052" height="35" viewBox="0 0 25.052 35">
  <path id="cart_bag" d="M297.009,73.226l-1.82-20.484a1.08,1.08,0,0,0-1.067-.994h-3.208V49.559a6.607,6.607,0,0,0-1.873-4.646A6.311,6.311,0,0,0,284.5,43a6.5,6.5,0,0,0-6.415,6.562v2.189h-3.208a1.077,1.077,0,0,0-1.065.994l-1.82,20.484a4.448,4.448,0,0,0,1.1,3.347A4.241,4.241,0,0,0,276.252,78h16.5a4.241,4.241,0,0,0,3.158-1.425A4.456,4.456,0,0,0,297.009,73.226ZM280.223,49.559a4.331,4.331,0,0,1,4.277-4.375,4.215,4.215,0,0,1,3.03,1.275,4.4,4.4,0,0,1,1.247,3.1v2.189h-8.553ZM294.328,75.1a2.1,2.1,0,0,1-1.58.711h-16.5a2.093,2.093,0,0,1-1.578-.712,2.192,2.192,0,0,1-.55-1.674l1.73-19.488h2.23v3.28a1.07,1.07,0,1,0,2.138,0v-3.28h8.553v3.28a1.07,1.07,0,1,0,2.138,0v-3.28h2.23l1.732,19.49A2.194,2.194,0,0,1,294.328,75.1Z" transform="translate(-271.974 -42.997)" fill="#181818"/>
</svg>
