<svg xmlns="http://www.w3.org/2000/svg" width="30" height="29" viewBox="0 0 30 29">
  <g id="rotation" transform="translate(-831 -1551.405)">
    <g id="Rounded_Rectangle_31_copy_9" data-name="Rounded Rectangle 31 copy 9" transform="translate(832 1552.405)" fill="#fe6d6a" stroke="#ff9c9a" stroke-linejoin="round" stroke-width="1">
      <rect width="28" height="27" rx="2.86" stroke="none"/>
      <rect x="-0.5" y="-0.5" width="29" height="28" rx="3.36" fill="none"/>
    </g>
    <path id="Forma_1_copy_11" data-name="Forma 1 copy 11" d="M817.5,1374.8V1372l3.438,3.5L817.5,1379v-2.8a4.2,4.2,0,1,0,4.125,4.2H823a5.5,5.5,0,1,1-5.5-5.6Z" transform="translate(29 187.405)" fill="#fff"/>
  </g>
</svg>
