<svg xmlns="http://www.w3.org/2000/svg" width="123.63" height="108.176" viewBox="0 0 123.63 108.176">
  <g id="terms_warranty" transform="translate(0 -1)">
    <ellipse id="Ellipse_1" data-name="Ellipse 1" cx="10" cy="10.5" rx="10" ry="10.5" transform="translate(51.815 57.588)" fill="#1f1f1f"/>
    <path id="Path_3" data-name="Path 3" d="M109.464,21.605H87.571V11.3A10.313,10.313,0,0,0,77.269,1H46.361a10.313,10.313,0,0,0-10.3,10.3v10.3H14.166A14.178,14.178,0,0,0,0,35.771V95.01a14.178,14.178,0,0,0,14.166,14.166h95.3A14.178,14.178,0,0,0,123.63,95.01V35.771A14.178,14.178,0,0,0,109.464,21.605Zm-63.1-10.3H77.269v10.3H46.361ZM81.132,67.966a19.577,19.577,0,0,1-.242,2.416L85.531,73.9a2.577,2.577,0,0,1,.675,3.343L82.039,84.45a2.577,2.577,0,0,1-3.23,1.087l-5.342-2.251a19.138,19.138,0,0,1-4.219,2.509l-.711,5.672a2.579,2.579,0,0,1-2.555,2.256h-8.33A2.575,2.575,0,0,1,55.1,91.466l-.711-5.672a19.22,19.22,0,0,1-4.219-2.509l-5.342,2.256a2.583,2.583,0,0,1-3.235-1.092l-4.162-7.212A2.58,2.58,0,0,1,38.1,73.9l4.641-3.513a18.629,18.629,0,0,1-.247-2.416,19.578,19.578,0,0,1,.242-2.416L38.1,62.037a2.577,2.577,0,0,1-.675-3.343l4.167-7.212a2.577,2.577,0,0,1,3.23-1.087l5.342,2.251a19.139,19.139,0,0,1,4.219-2.509l.711-5.672a2.579,2.579,0,0,1,2.555-2.256h8.33a2.575,2.575,0,0,1,2.555,2.256l.711,5.672a19.22,19.22,0,0,1,4.219,2.509L78.8,50.4a2.571,2.571,0,0,1,3.23,1.087L86.2,58.7a2.58,2.58,0,0,1-.675,3.343l-4.641,3.513a18.458,18.458,0,0,1,.247,2.411Z" fill="#1f1f1f"/>
  </g>
</svg>
